 Singular_value         fall_in_null_space_term  rise_in_soln_space_term     total_fall_in_error_variance
    77960.93                   1.440701                2.0467428E-07           1.440701    
    7970.258                  0.7772766                2.0020178E-06          0.7772746    
    6092.039                   2.353036                2.6192541E-06           2.353034    
    5011.763                   1.602347                3.1838290E-06           1.602344    
    2727.939                   2.823979                5.8493230E-06           2.823973    
    1982.256                   2.343008                8.0497151E-06           2.343000    
    1186.982                   3.763403                1.3442997E-05           3.763389    
    928.4475                   2.452202                1.7186323E-05           2.452185    
    731.5029                   4.551481                2.1813443E-05           4.551459    
    679.5684                   3.681272                2.3480488E-05           3.681248    
    628.1206                   6.702749                2.5403718E-05           6.702724    
    622.9191                   6.617736                2.5615842E-05           6.617711    
    591.7403                   6.756989                2.6965544E-05           6.756962    
    573.6541                   6.693356                2.7815714E-05           6.693328    
    555.9210                   1.578420                2.8702994E-05           1.578391    
    552.0802                   6.687931                2.8902682E-05           6.687902    
    549.5446                   6.698755                2.9036040E-05           6.698726    
    545.5523                   6.800686                2.9248521E-05           6.800657    
    545.0419                   6.792088                2.9275912E-05           6.792058    
    544.0667                   6.809945                2.9328386E-05           6.809916    
    542.6118                   6.799350                2.9407023E-05           6.799320    
    536.1332                   6.729821                2.9762375E-05           6.729791    
    531.0191                   6.802555                3.0049012E-05           6.802525    
    520.7694                   6.791648                3.0640431E-05           6.791617    
    517.2856                   6.809908                3.0846783E-05           6.809877    
    504.6007                   6.763452                3.1622230E-05           6.763421    
    499.7579                   6.802351                3.1928654E-05           6.802320    
    498.9116                   6.801845                3.1982819E-05           6.801813    
    483.6358                   6.728727                3.2993007E-05           6.728694    
    461.8089                   6.733321                3.4552380E-05           6.733286    
    453.9261                   2.119642                3.5152415E-05           2.119607    
    434.0443                   6.765418                3.6762604E-05           6.765381    
    422.1199                   6.804361                3.7801102E-05           6.804323    
    415.3441                   6.269333                3.8417779E-05           6.269294    
    411.8745                   3.999370                3.8741408E-05           3.999331    
    396.4454                   6.559790                4.0249171E-05           6.559750    
    372.7370                   6.718108                4.2809270E-05           6.718065    
    341.4813                   6.628986                4.6727588E-05           6.628939    
    322.9676                   4.383140                4.9406192E-05           4.383090    
    303.5910                   1.800526                5.2559523E-05           1.800473    
    302.8447                   6.367879                5.2689051E-05           6.367827    
    272.4327                   6.726812                5.8570793E-05           6.726754    
    214.0443                   6.693500                7.4548095E-05           6.693426    
    197.2676                   6.528892                8.0888102E-05           6.528811    
    156.2063                   6.484012                1.0215082E-04           6.483910    
    145.2466                   1.686012                1.0985864E-04           1.685902    
    107.6198                   6.006778                1.4826823E-04           6.006629    
    104.4120                   1.492675                1.5282337E-04           1.492522    
    81.16166                   2.178537                1.9660267E-04           2.178341    
    70.95539                   1.893802                2.2488210E-04           1.893577    
    51.62250                   1.848747                3.0910158E-04           1.848438    
    44.08142                   3.365416                3.6198011E-04           3.365054    
    30.94912                   1.695308                5.1557523E-04           1.694792    
    21.01142                   1.782981                7.5942493E-04           1.782222    
    19.33722                   1.371693                8.2517529E-04           1.370867    
    15.69039                   5.294478                1.0169666E-03           5.293461    
    14.13077                   1.575150                1.1292091E-03           1.574020    
    12.20412                   1.270292                1.3074762E-03           1.268984    
    10.78341                   1.518166                1.4797357E-03           1.516687    
    10.12050                   1.358994                1.5766616E-03           1.357417    
    8.794822                   1.498094                1.8143174E-03           1.496279    
    7.276410                   1.109839                2.1929219E-03           1.107646    
    4.622512                   3.333425                3.4519325E-03           3.329973    
    4.482826                   1.863027                3.5594955E-03           1.859468    
    3.004865                   1.788029                5.3102538E-03           1.782718    
    2.298330                   1.465087                6.9426926E-03           1.458144    
    1.680489                   1.785748                9.4952133E-03           1.776253    
    1.454462                   1.105873                1.0970793E-02           1.094903    
    1.096689                   1.230016                1.4549795E-02           1.215466    
   0.9574432                   1.214574                1.6665843E-02           1.197908    
   0.8653022                   1.119986                1.8440492E-02           1.101545    
   0.7811683                   1.422526                2.0426582E-02           1.402099    
   0.7143968                   1.411224                2.2335763E-02           1.388888    
   0.6593699                   1.651591                2.4199766E-02           1.627391    
   0.6177045                   1.224443                2.5832089E-02           1.198611    
   0.5100099                   1.082407                3.1286837E-02           1.051120    
   0.4189868                   1.702991                3.8083776E-02           1.664907    
   0.4006685                   1.385696                3.9824941E-02           1.345871    
   0.3905085                   1.585812                4.0861080E-02           1.544951    
   0.3781140                   1.514638                4.2200493E-02           1.472438    
   0.3621469                   1.463208                4.4061122E-02           1.419147    
   0.3504822                   2.745923                4.5527552E-02           2.700396    
   0.3222982                   2.350272                4.9508808E-02           2.300763    
   0.3083689                   1.518817                5.1745160E-02           1.467072    
   0.2593422                   1.509492                6.1527199E-02           1.447965    
   0.2487290                   1.476432                6.4152552E-02           1.412280    
   0.2319926                   1.536576                6.8780630E-02           1.467795    
   0.2167154                   1.516690                7.3629265E-02           1.443060    
   0.2020064                   1.391947                7.8990567E-02           1.312956    
   0.1950787                   1.439867                8.1795704E-02           1.358071    
   0.1841840                   1.433464                8.6633998E-02           1.346830    
   0.1764549                   1.435830                9.0428750E-02           1.345401    
   0.1699434                   1.601982                9.3893606E-02           1.508088    
   0.1639438                   1.675685                9.7329709E-02           1.578356    
   0.1542068                   1.566463                0.1034753               1.462987    
   0.1505667                   1.461652                0.1059769               1.355675    
   0.1386476                   1.277398                0.1150874               1.162311    
   0.1355981                   1.538260                0.1176757               1.420584    
   0.1321628                   1.541952                0.1207345               1.421217    
   0.1307150                   1.592566                0.1220717               1.470495    
   0.1236027                   1.461999                0.1290959               1.332903    
   0.1119112                   1.560418                0.1425827               1.417835    
   0.1021517                   1.792595                0.1562049               1.636390    
   9.7922870E-02               1.555513                0.1629507               1.392562    
   9.6987184E-02               1.855008                0.1645227               1.690486    
   9.0428632E-02               1.939718                0.1764552               1.763263    
   8.9525991E-02               1.692455                0.1782343               1.514221    
   8.5219396E-02               1.519827                0.1872414               1.332585    
   8.2920339E-02               1.736989                0.1924329               1.544556    
   7.8905244E-02               1.414744                0.2022248               1.212519    
   7.2181611E-02               1.638888                0.2210618               1.417826    
   7.1321287E-02               1.553604                0.2237284               1.329876    
   6.9374800E-02               1.671118                0.2300057               1.441112    
   6.6982495E-02               1.540664                0.2382204               1.302444    
   6.1604735E-02               1.860301                0.2590158               1.601286    
   5.9171061E-02               1.631822                0.2696690               1.362153    
   5.7600182E-02               1.804137                0.2770234               1.527113    
   5.7378239E-02               1.666402                0.2780949               1.388307    
   5.5772287E-02               1.768245                0.2861026               1.482142    
   5.2984152E-02               1.782787                0.3011579               1.481629    
   5.0936142E-02               1.869533                0.3132667               1.556266    
   4.9742755E-02               1.609726                0.3207824               1.288944    
   4.9014413E-02               1.826972                0.3255491               1.501423    
   4.7626147E-02               1.621843                0.3350386               1.286804    
   4.5228567E-02               1.664855                0.3527991               1.312056    
   4.4866926E-02               1.640352                0.3556428               1.284709    
   4.4505519E-02               1.685327                0.3585308               1.326796    
   4.2951253E-02               1.583599                0.3715048               1.212094    
   4.2083973E-02               1.713861                0.3791609               1.334700    
   4.0300307E-02               1.790533                0.3959423               1.394591    
   4.0281408E-02               1.771347                0.3961281               1.375219    
   3.8189539E-02               1.587033                0.4178264               1.169207    
   3.7910316E-02               1.667131                0.4209038               1.246227    
   3.7482953E-02               1.629977                0.4257028               1.204274    
   3.6937133E-02               1.541489                0.4319934               1.109495    
   3.6564781E-02               1.728620                0.4363925               1.292227    
   3.5217463E-02               1.517181                0.4530877               1.064094    
   3.4980050E-02               1.857905                0.4561628               1.401742    
   3.4450876E-02               1.999703                0.4631696               1.536534    
   3.3137881E-02               1.681171                0.4815214               1.199650    
   3.2327117E-02               2.546595                0.4935979               2.052997    
   3.1477479E-02               1.765615                0.5069211               1.258694    
   3.0609395E-02               2.835327                0.5212974               2.314029    
   3.0330342E-02               1.954240                0.5260936               1.428146    
   3.0115113E-02               2.005461                0.5298535               1.475608    
   2.9323558E-02               2.412013                0.5441563               1.867857    
   2.9015278E-02               2.266495                0.5499378               1.716557    
   2.8393189E-02               2.742825                0.5619868               2.180838    
   2.8251780E-02               2.567265                0.5647997               2.002466    
   2.7011064E-02               1.688913                0.5907430               1.098170    
   2.6412527E-02               1.967473                0.6041299               1.363343    
   2.6241337E-02               1.883272                0.6080711               1.275201    
   2.5542813E-02               1.684373                0.6247001               1.059673    
   2.5009920E-02               1.796111                0.6380108               1.158100    
   2.4232313E-02               1.689205                0.6584843               1.030720    
   2.4182931E-02               1.729586                0.6598290               1.069757    
   2.3785720E-02               1.656108                0.6708478              0.9852603    
   2.2803011E-02               1.952151                0.6997584               1.252393    
   2.2398605E-02               1.857702                0.7123925               1.145309    
   2.2118608E-02               2.415793                0.7214106               1.694383    
   2.1784333E-02               1.713961                0.7324804              0.9814801    
   2.1468517E-02               1.614589                0.7432557              0.8713331    
   2.0661980E-02               1.642124                0.7722686              0.8698559    
   2.0475024E-02               2.042397                0.7793201               1.263077    
   1.9993532E-02               2.417104                0.7980880               1.619016    
   1.9672298E-02               1.773671                0.8111202              0.9625508    
   1.9133936E-02               1.691854                0.8339423              0.8579119    
   1.9014045E-02               1.864739                0.8392006               1.025538    
   1.8409005E-02               1.802976                0.8667822              0.9361940    
   1.7927616E-02               2.089559                0.8900569               1.199502    
   1.7700698E-02               1.683163                0.9014671              0.7816956    
   1.7476080E-02               1.762171                0.9130536              0.8491171    
   1.6911857E-02               1.590431                0.9435154              0.6469156    
   1.6206484E-02               1.862549                0.9845811              0.8779680    
   1.5950172E-02               1.642885                 1.000403              0.6424825    
   1.5664704E-02               2.849866                 1.018634               1.831232    
   1.5475133E-02               1.951762                 1.031112              0.9206497    
   1.5303987E-02               2.069670                 1.042643               1.027027    
   1.4719293E-02               2.149006                 1.084060               1.064946    
   1.4422316E-02               2.047725                 1.106382              0.9413426    
   1.4349146E-02               2.741279                 1.112024               1.629255    
   1.4145075E-02               2.308052                 1.128067               1.179985    
   1.3565459E-02               1.802566                 1.176267              0.6262996    
   1.3332883E-02               2.091838                 1.196785              0.8950527    
   1.3268373E-02               1.796970                 1.202604              0.5943656    
   1.3117616E-02               2.016980                 1.216425              0.8005549    
   1.2741570E-02               1.608636                 1.252326              0.3563099    
   1.2716785E-02               1.981712                 1.254767              0.7269451    
   1.2184005E-02               1.830314                 1.309635              0.5206793    
   1.2062012E-02               2.413311                 1.322880               1.090431    
   1.1767912E-02               2.885800                 1.355941               1.529858    
   1.1334692E-02               2.985431                 1.407766               1.577664    
   1.0969971E-02               3.114773                 1.454571               1.660202    
   1.0763342E-02               1.802020                 1.482495              0.3195253    
   1.0674719E-02               1.920321                 1.494803              0.4255187    
   1.0415958E-02               1.975976                 1.531938              0.4440383    
   1.0269469E-02               1.882811                 1.553790              0.3290215    
   1.0124525E-02               2.036186                 1.576034              0.4601518    
   9.9815553E-03               1.739667                 1.598608              0.1410583    
   9.8076575E-03               1.593818                 1.626953             -3.3135185E-02
   9.3667315E-03               2.164941                 1.703540              0.4614018    
   9.2207177E-03               1.781965                 1.730516              5.1449293E-02
   9.0745846E-03               2.363569                 1.758383              0.6051857    
   8.9559517E-03               1.940149                 1.781675              0.1584739    
   8.8874952E-03               1.899960                 1.795399              0.1045617    
   8.8739627E-03               4.616201                 1.798137               2.818064    
   8.4683572E-03               1.785166                 1.884261             -9.9094868E-02
   8.4318027E-03               2.025904                 1.892430              0.1334737    
   8.1481078E-03               1.735215                 1.958319             -0.2231047    
   8.0886235E-03               1.837751                 1.972721             -0.1349703    
   8.0036561E-03               6.642243                 1.993664               4.648579    
   7.8841550E-03               2.020350                 2.023882             -3.5320079E-03
   7.7142840E-03               1.646572                 2.068448             -0.4218768    
   7.5527171E-03               1.721182                 2.112696             -0.3915142    
   7.3682448E-03               1.864903                 2.165590             -0.3006869    
   7.3196190E-03               1.764656                 2.179977             -0.4153204    
   7.0926862E-03               2.257123                 2.249726              7.3973763E-03
   7.0612121E-03               1.987725                 2.259753             -0.2720288    
   6.9853275E-03               2.340948                 2.284302              5.6646244E-02
   6.6971496E-03               1.970331                 2.382595             -0.4122640    
   6.5677287E-03               4.020583                 2.429546               1.591037    
   6.3981697E-03               1.866686                 2.493932             -0.6272457    
   6.2760709E-03               2.027450                 2.542450             -0.5150000    
   6.0802257E-03               2.119635                 2.624343             -0.5047076    
   5.9999135E-03               1.826768                 2.659471             -0.8327037    
   5.8933745E-03               1.764809                 2.707549             -0.9427395    
   5.7955643E-03               2.165708                 2.753243             -0.5875357    
   5.6462682E-03               1.950252                 2.826043             -0.8757909    
   5.5276365E-03               1.865265                 2.886695              -1.021429    
   5.4674308E-03               2.069023                 2.918482             -0.8494591    
   5.3296638E-03               1.473906                 2.993922              -1.520016    
   5.2391001E-03               1.716313                 3.045675              -1.329362    
   4.9445552E-03               1.790859                 3.227105              -1.436246    
   4.8260757E-03               1.802635                 3.306330              -1.503695    
   4.8024475E-03               1.732142                 3.322597              -1.590455    
   4.6854616E-03               1.743741                 3.405555              -1.661814    
   4.6096067E-03               1.476997                 3.461596              -1.984599    
   4.4550491E-03               1.566997                 3.581689              -2.014691    
   4.3968517E-03               1.640216                 3.629096              -1.988881    
   4.2286127E-03               2.051026                 3.773483              -1.722457    
   4.1448682E-03               2.044747                 3.849724              -1.804977    
   3.9749836E-03               1.670311                 4.014255              -2.343944    
   3.9519494E-03               1.936145                 4.037652              -2.101508    
   3.8977034E-03               1.989585                 4.093846              -2.104261    
   3.8174262E-03               2.946347                 4.179936              -1.233589    
   3.7716779E-03               2.132313                 4.230636              -2.098323    
   3.7484775E-03               1.931889                 4.256821              -2.324932    
   3.6717779E-03               1.812062                 4.345742              -2.533680    
   3.5986176E-03               2.243373                 4.434091              -2.190718    
   3.4719355E-03               1.810375                 4.595880              -2.785505    
   3.4326818E-03               3.647203                 4.648435              -1.001232    
   3.3782560E-03               6.671931                 4.723324               1.948607    
   3.3550235E-03               2.633504                 4.756032              -2.122527    
   3.3099934E-03               1.513725                 4.820734              -3.307009    
   3.2780771E-03               2.203203                 4.867670              -2.664467    
   3.2720804E-03               2.410572                 4.876591              -2.466019    
   3.1728915E-03               2.141684                 5.029040              -2.887356    
   3.1483464E-03               1.622760                 5.068247              -3.445487    
   3.0588246E-03               1.923379                 5.216578              -3.293199    
   2.9287172E-03               2.059571                 5.448323              -3.388752    
   2.8742913E-03               6.583115                 5.551490               1.031625    
   2.8581189E-03               2.072522                 5.582902              -3.510381    
   2.8314479E-03               2.136869                 5.635491              -3.498622    
   2.7066045E-03               1.822807                 5.895430              -4.072623    
   2.6768653E-03               2.066733                 5.960927              -3.894194    
   2.6587471E-03               6.767870                 6.001548              0.7663219    
   2.6246778E-03               6.647098                 6.079450              0.5676478    
   2.5567534E-03               3.030987                 6.240961              -3.209974    
   2.5343609E-03               4.006158                 6.296103              -2.289945    
   2.5167554E-03               3.466377                 6.340147              -2.873770    
   2.4928526E-03               5.965505                 6.400939             -0.4354346    
   2.4726575E-03               6.740645                 6.453218              0.2874271    
   2.3907902E-03               2.245402                 6.674194              -4.428792    
   2.3750796E-03               2.957346                 6.718342              -3.760997    
   2.3698085E-03               6.113005                 6.733286             -0.6202811    
   2.2865440E-03               5.012876                 6.978478              -1.965602    
   2.2772189E-03               6.544435                 7.007055             -0.4626197    
   2.2520275E-03               3.070260                 7.085437              -4.015176    
   2.2296006E-03               1.866394                 7.156707              -5.290312    
   2.1470635E-03               2.513124                 7.431824              -4.918700    
   2.0956359E-03               2.964319                 7.614204              -4.649884    
   2.0637672E-03               2.011855                 7.731782              -5.719927    
   2.0236242E-03               1.869146                 7.885159              -6.016013    
   2.0027304E-03               1.465329                 7.967422              -6.502092    
   1.9645082E-03               6.728141                 8.122439              -1.394298    
   1.9434334E-03               1.954828                 8.210520              -6.255692    
   1.8374612E-03               1.869851                 8.684046              -6.814195    
   1.7713004E-03               1.801614                 9.008409              -7.206794    
   1.7209892E-03               2.099103                 9.271760              -7.172657    
   1.6848919E-03               1.962870                 9.470399              -7.507529    
   1.6091421E-03               1.955654                 9.916215              -7.960561    
   1.5982932E-03               6.699903                 9.983523              -3.283621    
   1.5536240E-03               1.717621                 10.27057              -8.552945    
   1.5370563E-03               2.109346                 10.38127              -8.271925    
   1.4961986E-03               1.462642                 10.66476              -9.202117    
   1.4876466E-03               6.396958                 10.72607              -4.329110    
   1.4810601E-03               1.753803                 10.77377              -9.019965    
   1.4243842E-03               1.583447                 11.20245              -9.619007    
   1.3913490E-03               1.693049                 11.46844              -9.775388    
   1.3150881E-03               1.843371                 12.13348              -10.29011    
   1.2794096E-03               1.666121                 12.47184              -10.80572    
   1.2186175E-03               1.596203                 13.09402              -11.49781    
   1.1839298E-03               1.642349                 13.47766              -11.83531    
   1.1660009E-03               1.873402                 13.68489              -11.81149    
   1.1280631E-03               1.690379                 14.14513              -12.45475    
   1.0550404E-03               1.857018                 15.12416              -13.26714    
   1.0159336E-03               1.896225                 15.70634              -13.81011    
   9.9125678E-04               1.900404                 16.09734              -14.19694    
   9.7956433E-04               2.125334                 16.28948              -14.16415    
   9.7462821E-04               1.735776                 16.37198              -14.63621    
   9.5850075E-04               1.657573                 16.64745              -14.98988    
   9.3099149E-04               1.706042                 17.13936              -15.43332    
   8.8357693E-04               1.991602                 18.05909              -16.06749    
   8.5554788E-04               5.569764                 18.65074              -13.08097    
   8.4518567E-04               2.671708                 18.87940              -16.20769    
   8.2308688E-04               2.013078                 19.38629              -17.37321    
   7.8485068E-04               1.966717                 20.33074              -18.36403    
   7.6737777E-04               1.905460                 20.79367              -18.88821    
   7.0802382E-04               1.756643                 22.53681              -20.78017    
   7.0598844E-04               1.761380                 22.60178              -20.84040    
   6.9323979E-04               1.719760                 23.01743              -21.29767    
   6.6736080E-04               1.884502                 23.91000              -22.02550    
   6.4782386E-04               2.192439                 24.63107              -22.43864    
   6.4430897E-04               2.213314                 24.76544              -22.55213    
   6.1235268E-04               1.773507                 26.05786              -24.28435    
   5.9457180E-04               1.803835                 26.83713              -25.03329    
   5.8587212E-04               6.490997                 27.23563              -20.74464    
   5.7964757E-04               1.984355                 27.52810              -25.54375    
   5.6741976E-04               1.888239                 28.12133              -26.23309    
   5.5279799E-04               1.646093                 28.86515              -27.21906    
   5.2772177E-04               1.760551                 30.23676              -28.47621    
   4.8815680E-04               1.921238                 32.68744              -30.76621    
   4.7592500E-04               1.797027                 33.52755              -31.73052    
   4.7299801E-04               1.405467                 33.73502              -32.32955    
   4.6240458E-04               1.769408                 34.50787              -32.73846    
   4.4558611E-04               1.731254                 35.81036              -34.07910    
   4.2849288E-04               1.708139                 37.23889              -35.53075    
   4.0437471E-04               1.658910                 39.45993              -37.80102    
   3.9543843E-04               1.686228                 40.35166              -38.66543    
   3.8100554E-04               2.895670                 41.88023              -38.98456    
   3.7086360E-04               4.515326                 43.02552              -38.51019    
   3.5341732E-04               1.877330                 45.14945              -43.27212    
   3.4201328E-04               1.842597                 46.65491              -44.81231    
   3.2799831E-04               1.705451                 48.64842              -46.94296    
   3.1552841E-04               1.753614                 50.57103              -48.81742    
   2.9781227E-04               1.808392                 53.57938              -51.77099    
   2.9546156E-04               1.570601                 54.00566              -52.43506    
   2.8511560E-04               1.477613                 55.96536              -54.48775    
   2.8170000E-04               1.410678                 56.64394              -55.23326    
   2.7438999E-04               1.619612                 58.15299              -56.53338    
   2.6371605E-04               1.596810                 60.50674              -58.90993    
   2.5190414E-04               1.587240                 63.34393              -61.75669    
   2.3607358E-04               1.423043                 67.59163              -66.16859    
   2.3353684E-04               1.620367                 68.32583              -66.70546    
   2.2539261E-04               1.507654                 70.79468              -69.28703    
   2.1976884E-04               1.406938                 72.60628              -71.19934    
   2.1322706E-04               1.591368                 74.83383              -73.24246    
   2.0050400E-04               1.629319                 79.58244              -77.95312    
   1.9024861E-04               1.783172                 83.87235              -82.08918    
   1.8656672E-04               1.683402                 85.52757              -83.84417    
   1.7824507E-04               1.724466                 89.52056              -87.79609    
   1.6691975E-04               1.752045                 95.59443              -93.84238    
   1.6224598E-04               1.738547                 98.34819              -96.60964    
   1.5773877E-04               1.539669                 101.1584              -99.61871    
   1.4747703E-04               1.637031                 108.1972              -106.5601    
   1.4413316E-04               1.921090                 110.7073              -108.7862    
   1.3820819E-04               1.811963                 115.4533              -113.6414    
   1.3234575E-04               1.588932                 120.5675              -118.9786    
   1.2380990E-04               1.681208                 128.8798              -127.1986    
   1.2076117E-04               1.793562                 132.1335              -130.3400    
   1.1733474E-04               1.526347                 135.9921              -134.4658    
   1.1344660E-04               1.585995                 140.6529              -139.0670    
   1.1182740E-04               1.707283                 142.6895              -140.9822    
   1.0434242E-04               2.022835                 152.9253              -150.9025    
   1.0155137E-04               1.572365                 157.1283              -155.5560    
   9.5895448E-05               1.675278                 166.3958              -164.7205    
   9.4694218E-05               2.029910                 168.5066              -166.4767    
   9.3489362E-05               1.637639                 170.6782              -169.0406    
   9.1149199E-05               1.650305                 175.0602              -173.4099    
   8.7840374E-05               1.919151                 181.6545              -179.7353    
   8.5823953E-05               2.770411                 185.9224              -183.1520    
   8.1511101E-05               2.333170                 195.7598              -193.4266    
   7.9642838E-05               2.580507                 200.3520              -197.7714    
   7.9388618E-05               1.672770                 200.9935              -199.3208    
   7.2868574E-05               2.352684                 218.9778              -216.6251    
   7.2045090E-05               1.958824                 221.4807              -219.5219    
   7.1380124E-05               2.102504                 223.5440              -221.4415    
   6.9545135E-05               1.456199                 229.4423              -227.9861    
   6.4223408E-05               1.780956                 248.4546              -246.6736    
   6.3121309E-05               1.896807                 252.7926              -250.8958    
   5.9534321E-05               1.794939                 268.0235              -266.2286    
   5.9121368E-05               2.019413                 269.8956              -267.8762    
   5.8195210E-05               1.864775                 274.1909              -272.3261    
   5.7181100E-05               1.958317                 279.0537              -277.0954    
   5.4383852E-05               1.791732                 293.4069              -291.6152    
   5.2720418E-05               1.768747                 302.6645              -300.8957    
   5.2237478E-05               1.871088                 305.4626              -303.5916    
   4.9195270E-05               1.781936                 324.3523              -322.5703    
   4.7167062E-05               1.611169                 338.2996              -336.6884    
   4.6890403E-05               1.474673                 340.2956              -338.8209    
   4.4404153E-05               1.575095                 359.3492              -357.7741    
   4.2278847E-05               1.682451                 377.4133              -375.7308    
   4.1596967E-05               1.767387                 383.6000              -381.8326    
   3.9473126E-05               1.566546                 404.2395              -402.6730    
   3.8512836E-05               1.662659                 414.3190              -412.6563    
   3.7076062E-05               1.799549                 430.3747              -428.5751    
   3.6303515E-05               1.591264                 439.5331              -437.9419    
   3.4992870E-05               1.508495                 455.9957              -454.4872    
   3.3762862E-05               1.623509                 472.6080              -470.9845    
   3.3666967E-05               1.609936                 473.9541              -472.3442    
   3.2274785E-05               1.693322                 494.3983              -492.7050    
   3.1412071E-05               1.582629                 507.9766              -506.3940    
   3.0567996E-05               1.646004                 522.0034              -520.3574    
   3.0347778E-05               1.709130                 525.7913              -524.0822    
   2.9082495E-05               1.587384                 548.6667              -547.0794    
   2.7900178E-05               1.570766                 571.9174              -570.3467    
   2.7213916E-05               1.486861                 586.3396              -584.8528    
   2.6987742E-05               1.471108                 591.2535              -589.7824    
   2.6158077E-05               1.511698                 610.0065              -608.4948    
   2.5039900E-05               1.628756                 637.2469              -635.6181    
   2.4218210E-05               1.633526                 658.8678              -657.2342    
   2.3679372E-05               1.630364                 673.8607              -672.2303    
   2.3079550E-05               1.486135                 691.3739              -689.8877    
   2.2725964E-05               1.596252                 702.1307              -700.5345    
   2.1856754E-05               1.502159                 730.0534              -728.5513    
   2.1706619E-05               1.872197                 735.1029              -733.2307    
   2.0888128E-05               1.593424                 763.9075              -762.3141    
   2.0305779E-05               1.593531                 785.8156              -784.2221    
   2.0251572E-05               1.560805                 787.9190              -786.3582    
   1.9562824E-05               1.632804                 815.6592              -814.0264    
   1.9332429E-05               1.697639                 825.3799              -823.6822    
   1.8962369E-05               1.831558                 841.4876              -839.6560    
   1.8884352E-05               1.530726                 844.9640              -843.4333    
   1.8022216E-05               1.792150                 885.3849              -883.5928    
   1.7804957E-05               1.456381                 896.1885              -894.7321    
   1.7367352E-05               1.545415                 918.7698              -917.2244    
   1.6934555E-05               1.627066                 942.2508              -940.6237    
   1.6773877E-05               1.605776                 951.2767              -949.6709    
   1.6193061E-05               1.661086                 985.3973              -983.7362    
   1.5975703E-05               1.781840                 998.8041              -997.0223    
   1.5936658E-05               1.558762                 1001.251              -999.6924    
   1.5531923E-05               1.687955                 1027.342              -1025.654    
   1.5203161E-05               1.571119                 1049.558              -1047.987    
   1.5072176E-05               1.677436                 1058.679              -1057.002    
   1.4793970E-05               1.707271                 1078.588              -1076.881    
   1.4405224E-05               1.545498                 1107.695              -1106.150    
   1.3917793E-05               1.801013                 1146.489              -1144.688    
   1.3609964E-05               1.762820                 1172.420              -1170.658    
   1.3324644E-05               1.685423                 1197.525              -1195.840    
   1.3157669E-05               1.773219                 1212.722              -1210.949    
   1.2979550E-05               1.577745                 1229.365              -1227.787    
   1.2411796E-05               1.639591                 1285.599              -1283.960    
   1.2354655E-05               1.480066                 1291.545              -1290.065    
   1.2093004E-05               1.670424                 1319.490              -1317.820    
   1.1795586E-05               1.840886                 1352.760              -1350.919    
   1.1741455E-05               1.560291                 1358.997              -1357.436    
   1.1475402E-05               1.551038                 1390.504              -1388.953    
   1.1220490E-05               1.524107                 1422.095              -1420.570    
   1.1188432E-05               1.718378                 1426.169              -1424.451    
   1.0846120E-05               1.405522                 1471.180              -1469.775    
   1.0716369E-05               1.741809                 1488.993              -1487.251    
   1.0670460E-05               1.692851                 1495.399              -1493.706    
   1.0434221E-05               1.458205                 1529.256              -1527.798    
   1.0157826E-05               1.591932                 1570.867              -1569.276    
   1.0070097E-05               1.779621                 1584.553              -1582.773    
   9.8724990E-06               1.601810                 1616.267              -1614.666    
   9.7796037E-06               1.624732                 1631.620              -1629.995    
   9.7364425E-06               1.455208                 1638.853              -1637.398    
   9.4328361E-06               1.575585                 1691.601              -1690.026    
   9.3177907E-06               1.483854                 1712.487              -1711.003    
   9.2551329E-06               1.451959                 1724.081              -1722.629    
   9.1798833E-06               1.608642                 1738.214              -1736.605    
   8.9788436E-06               1.635053                 1777.133              -1775.498    
   8.9003461E-06               1.429747                 1792.806              -1791.377    
   8.7555009E-06               1.440014                 1822.465              -1821.025    
   8.4673714E-06               1.688899                 1884.481              -1882.792    
   8.3070459E-06               1.659774                 1920.851              -1919.191    
   8.1744977E-06               1.404289                 1951.997              -1950.593    
   8.1159169E-06               1.670759                 1966.087              -1964.416    
   7.9857579E-06               1.657410                 1998.132              -1996.475    
   7.9084291E-06               1.717216                 2017.670              -2015.953    
   7.7536780E-06               1.709117                 2057.939              -2056.230    
   7.7291086E-06               1.500750                 2064.481              -2062.980    
   7.6242386E-06               1.437230                 2092.878              -2091.440    
   7.4068283E-06               1.604766                 2154.309              -2152.704    
   7.3809421E-06               1.665364                 2161.865              -2160.199    
   7.2760976E-06               1.453230                 2193.016              -2191.563    
   7.1517540E-06               1.455219                 2231.145              -2229.689    
   7.0152290E-06               1.549194                 2274.566              -2273.016    
   6.8877638E-06               1.575913                 2316.659              -2315.083    
   6.8391349E-06               1.585954                 2333.131              -2331.545    
   6.7543869E-06               1.837099                 2362.405              -2360.568    
   6.6125034E-06               1.430066                 2413.095              -2411.665    
   6.5250232E-06               1.388296                 2445.447              -2444.059    
   6.4367078E-06               1.501794                 2479.000              -2477.498    
   6.2449774E-06               1.580188                 2555.109              -2553.529    
   6.1336971E-06               1.457078                 2601.465              -2600.008    
   6.0813179E-06               1.321154                 2623.872              -2622.551    
   5.9790001E-06               1.563573                 2668.774              -2667.210    
   5.9490947E-06               1.470601                 2682.189              -2680.719    
   5.8412181E-06               1.569401                 2731.724              -2730.155    
   5.6700212E-06               1.776837                 2814.204              -2812.427    
   5.6625154E-06               1.479206                 2817.935              -2816.455    
   5.5937846E-06               1.655533                 2852.559              -2850.903    
   5.5685759E-06               1.797406                 2865.472              -2863.675    
   5.4353436E-06               1.570553                 2935.711              -2934.140    
   5.3561076E-06               1.509739                 2979.141              -2977.631    
   5.3237907E-06               1.508651                 2997.225              -2995.716    
   5.2777009E-06               1.458687                 3023.399              -3021.941    
   5.1123921E-06               1.386590                 3121.161              -3119.774    
   5.0870965E-06               1.607770                 3136.681              -3135.073    
   5.0428765E-06               1.366049                 3164.186              -3162.820    
   5.0142363E-06               1.457445                 3182.259              -3180.801    
   4.8688881E-06               1.473831                 3277.257              -3275.783    
   4.8174032E-06               1.377925                 3312.282              -3310.904    
   4.7448355E-06               1.306455                 3362.940              -3361.634    
   4.6580493E-06               1.458290                 3425.597              -3424.138    
   4.5493641E-06               1.457313                 3507.435              -3505.978    
   4.5005025E-06               1.474009                 3545.515              -3544.041    
   4.4585585E-06               1.504995                 3578.869              -3577.364    
   4.3812085E-06               1.582746                 3642.054              -3640.471    
   4.3320622E-06               1.424336                 3683.372              -3681.948    
   4.2696156E-06               1.573384                 3737.245              -3735.671    
   4.2076309E-06               1.461717                 3792.300              -3790.838    
   4.1179260E-06               1.581970                 3874.911              -3873.329    
   4.0513525E-06               1.563841                 3938.585              -3937.022    
   3.9507883E-06               1.575529                 4038.839              -4037.264    
   3.8620697E-06               1.366642                 4131.618              -4130.252    
   3.8110234E-06               1.653406                 4186.959              -4185.305    
   3.8016508E-06               1.352915                 4197.281              -4195.928    
   3.6908641E-06               1.467187                 4323.269              -4321.802    
   3.6328289E-06               1.386533                 4392.334              -4390.948    
   3.6063207E-06               1.346860                 4424.620              -4423.273    
   3.5347151E-06               1.422429                 4514.253              -4512.831    
   3.5098827E-06               1.356261                 4546.191              -4544.835    
   3.4583745E-06               1.551333                 4613.901              -4612.350    
   3.3612726E-06               1.677633                 4747.189              -4745.512    
   3.3133512E-06               1.430420                 4815.849              -4814.418    
   3.2431227E-06               1.334024                 4920.134              -4918.800    
   3.2019046E-06               1.383043                 4983.471              -4982.088    
   3.1602436E-06               1.488817                 5049.167              -5047.678    
   3.1120398E-06               1.450302                 5127.376              -5125.926    
   3.0814836E-06               1.408308                 5178.219              -5176.811    
   3.0287456E-06               1.540322                 5268.385              -5266.845    
   3.0150959E-06               1.393063                 5292.236              -5290.843    
   2.8923440E-06               1.246373                 5516.840              -5515.593    
   2.8316963E-06               1.342916                 5634.996              -5633.653    
   2.8171198E-06               1.394081                 5664.153              -5662.759    
   2.7402145E-06               1.515620                 5823.120              -5821.604    
   2.7178330E-06               1.260409                 5871.074              -5869.813    
   2.6461056E-06               1.318444                 6030.220              -6028.901    
   2.6233893E-06               1.303878                 6082.436              -6081.132    
   2.5645029E-06               1.288516                 6222.102              -6220.813    
   2.4891077E-06               1.253517                 6410.570              -6409.316    
   2.4375905E-06               1.305487                 6546.054              -6544.748    
   2.4150848E-06               1.249699                 6607.055              -6605.805    
   2.3597514E-06               1.417039                 6761.983              -6760.566    
   2.2586345E-06               1.462782                 7064.710              -7063.247    
   2.2227570E-06               1.193464                 7178.741              -7177.548    
   2.1792061E-06               1.362362                 7322.207              -7320.845    
   2.1262024E-06               1.360079                 7504.741              -7503.381    
   2.1053038E-06               1.285211                 7579.238              -7577.952    
   2.0342776E-06               1.250415                 7843.865              -7842.614    
   2.0200919E-06               1.260005                 7898.947              -7897.687    
   1.9879714E-06               1.339713                 8026.573              -8025.233    
   1.9719814E-06               1.240117                 8091.657              -8090.417    
   1.9175648E-06               1.252947                 8321.282              -8320.029    
   1.9036402E-06               1.281215                 8382.150              -8380.869    
   1.8190952E-06               1.541169                 8771.722              -8770.181    
   1.8012182E-06               1.537333                 8858.781              -8857.244    
   1.7796850E-06               1.351940                 8965.967              -8964.615    
   1.7344806E-06               1.372636                 9199.640              -9198.268    
   1.6933766E-06               1.300535                 9422.947              -9421.647    
   1.6797841E-06               1.244938                 9499.196              -9497.951    
   1.6207012E-06               1.312330                 9845.490              -9844.178    
   1.5798081E-06               1.439105                 10100.34              -10098.90    
   1.5444772E-06               1.370604                 10331.39              -10330.02    
   1.4824112E-06               1.467329                 10763.95              -10762.48    
   1.4522730E-06               1.228163                 10987.33              -10986.10    
   1.4345651E-06               1.396073                 11122.95              -11121.56    
   1.4007486E-06               1.304831                 11391.48              -11390.17    
   1.3411714E-06               1.394525                 11897.51              -11896.11    
   1.3235581E-06               1.485625                 12055.83              -12054.35    
   1.3046598E-06               1.133428                 12230.47              -12229.33    
   1.2645103E-06               1.204155                 12618.80              -12617.59    
   1.2447236E-06               1.363160                 12819.39              -12818.03    
   1.2070692E-06               1.144003                 13219.29              -13218.15    
   1.1744299E-06               1.481532                 13586.68              -13585.19    
   1.1577036E-06               1.194351                 13782.97              -13781.78    
   1.1183210E-06               1.337169                 14268.35              -14267.02    
   1.1034805E-06               1.601720                 14460.25              -14458.64    
   1.0530985E-06               1.240123                 15152.05              -15150.81    
   1.0413431E-06               1.233466                 15323.09              -15321.86    
   1.0201218E-06               1.421290                 15641.86              -15640.44    
   1.0086884E-06               1.268524                 15819.16              -15817.89    
   9.9924343E-07               1.330626                 15968.68              -15967.35    
   9.4879863E-07               1.308986                 16817.69              -16816.38    
   9.0736669E-07               1.177269                 17585.61              -17584.43    
   8.9608520E-07               1.359876                 17807.01              -17805.65    
   8.8159777E-07               1.243499                 18099.64              -18098.39    
   8.6130039E-07               1.517770                 18526.17              -18524.65    
   8.4866986E-07               1.375139                 18801.89              -18800.52    
   8.4484233E-07               1.379866                 18887.07              -18885.69    
   8.1842977E-07               1.181468                 19496.60              -19495.42    
   8.0351933E-07               1.434651                 19858.39              -19856.95    
   7.6293259E-07               1.400728                 20914.82              -20913.42    
   7.5760218E-07               1.230070                 21061.97              -21060.74    
   7.4527568E-07               1.175885                 21410.33              -21409.15    
   7.2796401E-07               1.243759                 21919.49              -21918.24    
   7.1128380E-07               1.351860                 22433.52              -22432.17    
   6.8734336E-07               1.630136                 23214.89              -23213.26    
   6.5985850E-07               1.394146                 24181.85              -24180.45    
   6.4379135E-07               1.251185                 24785.36              -24784.11    
   6.3227912E-07               1.548803                 25236.64              -25235.09    
   6.2963073E-07               1.370324                 25342.79              -25341.42    
   6.1007921E-07               1.226817                 26154.96              -26153.73    
   5.9335235E-07               1.376122                 26892.28              -26890.90    
   5.5087881E-07               1.314219                 28965.71              -28964.40    
   5.4484481E-07               1.228930                 29286.50              -29285.27    
   5.2802424E-07               1.330825                 30219.44              -30218.11    
   5.0453423E-07               1.353862                 31626.39              -31625.04    
   5.0221132E-07               1.224757                 31772.68              -31771.45    
   4.9459112E-07               1.188409                 32262.20              -32261.01    
   4.7257870E-07               1.367002                 33764.95              -33763.59    
   4.5883897E-07               1.171397                 34776.03              -34774.86    
   4.4663045E-07               1.268170                 35726.62              -35725.36    
   4.3311459E-07               1.297141                 36841.52              -36840.22    
   4.2162691E-07               1.333611                 37845.30              -37843.97    
   4.1367450E-07               1.265124                 38572.83              -38571.57    
   4.0897720E-07               1.228474                 39015.86              -39014.63    
   4.0147459E-07               1.224458                 39744.98              -39743.75    
   3.8038321E-07               1.228278                 41948.74              -41947.52    
   3.6969179E-07               1.278299                 43161.89              -43160.62    
   3.6488987E-07               1.267998                 43729.90              -43728.63    
   3.5443662E-07               1.106785                 45019.61              -45018.50    
   3.4886620E-07               1.417251                 45738.45              -45737.03    
   3.4048290E-07               1.177285                 46864.61              -46863.43    
   3.3871552E-07               1.218049                 47109.14              -47107.93    
   3.2934637E-07               1.365441                 48449.29              -48447.93    
   3.1177616E-07               1.389343                 51179.66              -51178.27    
   3.0749676E-07               1.301825                 51891.92              -51890.62    
   2.9529110E-07               1.271461                 54036.84              -54035.57    
   2.8398049E-07               1.339925                 56189.06              -56187.72    
   2.7989641E-07               1.318886                 57008.94              -57007.62    
   2.7290848E-07               1.305494                 58468.68              -58467.37    
   2.6228590E-07               1.518349                 60836.66              -60835.14    
   2.5722213E-07               1.236969                 62034.31              -62033.08    
   2.5121368E-07               1.525705                 63518.03              -63516.51    
   2.4423063E-07               1.325898                 65334.14              -65332.81    
   2.3819560E-07               1.234476                 66989.47              -66988.24    
   2.3328885E-07               1.525015                 68398.46              -68396.94    
   2.2747937E-07               1.404267                 70145.25              -70143.85    
   2.2410473E-07               1.315222                 71201.52              -71200.21    
   2.1666072E-07               1.286250                 73647.86              -73646.57    
   2.0637135E-07               1.310240                 77319.83              -77318.52    
   2.0322062E-07               1.387540                 78518.60              -78517.21    
   1.9510672E-07               1.281296                 81783.95              -81782.67    
   1.8774408E-07               1.336851                 84991.22              -84989.88    
   1.7978272E-07               1.401358                 88754.90              -88753.50    
   1.7067304E-07               1.283589                 93492.20              -93490.92    
   1.6694551E-07               1.302045                 95579.68              -95578.37    
   1.6253853E-07               1.161928                 98171.17              -98170.01    
   1.5667790E-07               1.346034                 101843.3              -101842.0    
   1.5233241E-07               1.572575                 104748.5              -104747.0    
   1.4747738E-07               1.620619                 108196.9              -108195.3    
   1.4562516E-07               1.609305                 109573.1              -109571.5    
   1.4169672E-07               1.726454                 112610.9              -112609.2    
   1.3778660E-07               1.297736                 115806.6              -115805.3    
   1.3231111E-07               2.010864                 120599.1              -120597.1    
   1.2719363E-07               1.522314                 125451.2              -125449.7    
   1.2621879E-07               1.303930                 126420.1              -126418.8    
   1.2511138E-07               1.336098                 127539.1              -127537.8    
   1.1830984E-07               1.311168                 134871.3              -134870.0    
   1.1495106E-07               1.272168                 138812.1              -138810.8    
   1.1357755E-07               1.321739                 140490.8              -140489.5    
   1.1107273E-07               1.355240                 143659.0              -143657.7    
   1.0583004E-07               1.347790                 150775.7              -150774.3    
   1.0456783E-07               1.298424                 152595.7              -152594.4    
   1.0076786E-07               1.468389                 158350.1              -158348.6    
   9.8496833E-08               1.351886                 162001.1              -161999.8    
   9.6927845E-08               1.196308                 164623.5              -164622.3    
   9.1451918E-08               1.362633                 174480.7              -174479.4    
   8.9804039E-08               1.182127                 177682.4              -177681.2    
   8.3924234E-08               1.243948                 190131.0              -190129.8    
   8.3255377E-08               1.446271                 191658.5              -191657.0    
   7.9130497E-08               1.430278                 201649.2              -201647.7    
   7.8076228E-08               1.375770                 204372.0              -204370.7    
   7.5332485E-08               1.375500                 211815.6              -211814.3    
   7.4712235E-08               1.402313                 213574.1              -213572.7    
   7.3174987E-08               1.337373                 218060.8              -218059.5    
   7.0138464E-08               1.691449                 227501.4              -227499.7    
   6.6625803E-08               1.329750                 239495.8              -239494.4    
   6.5110521E-08               1.390292                 245069.4              -245068.0    
   6.3454086E-08               1.364320                 251466.8              -251465.5    
   6.2057751E-08               2.276652                 257125.0              -257122.7    
   6.0710111E-08               1.530112                 262832.6              -262831.1    
   5.8787082E-08               1.948028                 271430.3              -271428.4    
   5.6168979E-08               2.848245                 284082.0              -284079.2    
   5.5662516E-08               1.311406                 286666.9              -286665.5    
   5.4357156E-08               1.377029                 293551.0              -293549.6    
   5.2956466E-08               1.438359                 301315.4              -301313.9    
   5.1672401E-08               1.382594                 308803.1              -308801.7    
   5.0015858E-08               1.706125                 319030.8              -319029.1    
   4.9383679E-08               1.444011                 323114.8              -323113.4    
   4.7254264E-08               1.419840                 337675.3              -337673.9    
   4.6891720E-08               1.702256                 340286.0              -340284.3    
   4.6744895E-08               1.428297                 341354.9              -341353.4    
   4.4007104E-08               1.888261                 362591.4              -362589.5    
   4.3717939E-08               1.425105                 364989.7              -364988.3    
   4.2613328E-08               1.424726                 374450.9              -374449.5    
   3.9759449E-08               1.401443                 401328.5              -401327.1    
   3.9517038E-08               1.341856                 403790.3              -403789.0    
   3.7879066E-08               1.390000                 421251.1              -421249.7    
   3.7082764E-08               1.265701                 430296.9              -430295.6    
   3.6196950E-08               1.417956                 440827.1              -440825.7    
   3.4455877E-08               1.425854                 463102.4              -463100.9    
   3.3143409E-08               1.342822                 481441.1              -481439.7    
   3.1388667E-08               1.412139                 508355.4              -508354.0    
   2.9515168E-08               1.278485                 540623.6              -540622.4    
   2.9338080E-08               1.411119                 543886.9              -543885.5    
   2.8244413E-08               1.416322                 564947.1              -564945.6    
   2.6662481E-08               1.352997                 598466.4              -598465.0    
   2.5902307E-08               1.374994                 616030.0              -616028.6    
   2.5221288E-08               1.403845                 632663.9              -632662.5    
   2.3654125E-08               1.386953                 674579.9              -674578.5    
   2.3137180E-08               1.406768                 689651.8              -689650.4    
   2.2323998E-08               1.360515                 714773.3              -714771.9    
   2.2063577E-08               1.377913                 723209.9              -723208.5    
   2.0587670E-08               1.424063                 775056.0              -775054.6    
   1.9878933E-08               1.367260                 802688.9              -802687.5    
   1.8163680E-08               1.376454                 878489.3              -878487.9    
   1.7889787E-08               1.421436                 891938.9              -891937.5    
   1.7003939E-08               1.402154                 938406.0              -938404.6    
   1.6718587E-08               1.356736                 954422.7              -954421.3    
   1.6016201E-08               1.386050                 996278.6              -996277.2    
   1.5543739E-08               1.370106                 1026561.              -1026560.    
   1.4888833E-08               1.413337                 1071716.              -1071714.    
   1.4112315E-08               1.423685                 1130686.              -1130685.    
   1.4003962E-08               1.424921                 1139435.              -1139433.    
   1.3765253E-08               1.394753                 1159194.              -1159193.    
   1.2513485E-08               1.408639                 1275152.              -1275151.    
   1.2164068E-08               1.520796                 1311781.              -1311780.    
   1.1924220E-08               1.459849                 1338167.              -1338166.    
   1.1451894E-08               1.391501                 1393359.              -1393357.    
   1.1188593E-08               1.412525                 1426149.              -1426147.    
   1.0297341E-08               1.368425                 1549584.              -1549583.    
   9.8859721E-09               1.422747                 1614065.              -1614063.    
   9.4998140E-09               1.411144                 1679675.              -1679673.    
   8.8912044E-09               1.411338                 1794650.              -1794648.    
   8.7708849E-09               1.365238                 1819269.              -1819268.    
   8.5717130E-09               1.409039                 1861541.              -1861540.    
   8.1759922E-09               1.422671                 1951641.              -1951639.    
   7.6094687E-09               1.416621                 2096940.              -2096938.    
   7.4964183E-09               1.406121                 2128563.              -2128562.    
   7.3112969E-09               1.424131                 2182458.              -2182457.    
   7.0399917E-09               1.378909                 2266565.              -2266564.    
   6.7297526E-09               1.415626                 2371053.              -2371051.    
   6.5621557E-09               1.431147                 2431609.              -2431608.    
   6.1769904E-09               1.415606                 2583232.              -2583230.    
   5.7364903E-09               1.423408                 2781596.              -2781595.    
   5.7103821E-09               1.409019                 2794314.              -2794312.    
   5.3256626E-09               1.409231                 2996171.              -2996170.    
   5.2375358E-09               1.422751                 3046585.              -3046584.    
   5.0367491E-09               1.431882                 3168035.              -3168034.    
   4.8931238E-09               1.431166                 3261025.              -3261023.    
   4.2693940E-09               1.433708                 3737439.              -3737437.    
   4.1315032E-09               1.406885                 3862177.              -3862176.    
   3.8638751E-09               1.423256                 4129688.              -4129686.    
   3.6970584E-09               1.417805                 4316025.              -4316024.    
   3.6096857E-09               1.421625                 4420495.              -4420494.    
   3.2885168E-09               1.433875                 4852217.              -4852216.    
   3.2385366E-09               1.437481                 4927101.              -4927100.    
   2.9683066E-09               1.429708                 5375657.              -5375656.    
   2.8513875E-09               1.431957                 5596082.              -5596080.    
   2.7146364E-09               1.429878                 5877987.              -5877986.    
   2.5129712E-09               1.431235                 6349694.              -6349692.    
   2.4054254E-09               1.433813                 6633587.              -6633585.    
   2.3608859E-09               1.431166                 6758733.              -6758732.    
   2.2320514E-09               1.425479                 7148849.              -7148847.    
   2.1070400E-09               1.396818                 7572993.              -7572991.    
   1.9982275E-09               1.420315                 7985376.              -7985374.    
   1.9397675E-09               1.425984                 8226037.              -8226035.    
   1.8733530E-09               1.424254                 8517668.              -8517666.    
   1.6692640E-09               1.392529                 9559062.              -9559061.    
   1.4888435E-09               1.427348                1.0717445E+07         -1.0717444E+07
   1.4190748E-09               1.436895                1.1244367E+07         -1.1244366E+07
   1.2677853E-09               1.432372                1.2586199E+07         -1.2586197E+07
   1.2275264E-09               1.436180                1.2998986E+07         -1.2998984E+07
   1.1019951E-09               1.431964                1.4479736E+07         -1.4479734E+07
   1.0699760E-09               1.415184                1.4913043E+07         -1.4913041E+07
   9.6723466E-10               1.428076                1.6497132E+07         -1.6497131E+07
   8.8960866E-10               1.435150                1.7936649E+07         -1.7936647E+07
   8.4833075E-10               1.427763                1.8809407E+07         -1.8809405E+07
   7.6505700E-10               1.433303                2.0856744E+07         -2.0856743E+07
   7.1069251E-10               1.429043                2.2452183E+07         -2.2452181E+07
   6.7035120E-10               1.432021                2.3803341E+07         -2.3803340E+07
   5.8898986E-10               1.439500                2.7091465E+07         -2.7091463E+07
   5.3568772E-10               1.435042                2.9787127E+07         -2.9787125E+07
   5.0991728E-10               1.431047                3.1292522E+07         -3.1292521E+07
   4.4986572E-10               1.437770                3.5469691E+07         -3.5469690E+07
   3.9274726E-10               1.426136                4.0628159E+07         -4.0628158E+07
   3.0922079E-10               1.437586                5.1602605E+07         -5.1602603E+07
   2.9648508E-10               1.426078                5.3819227E+07         -5.3819226E+07
   2.4934422E-10               1.421955                6.3994257E+07         -6.3994256E+07
   2.2238518E-10               1.439668                7.1752075E+07         -7.1752074E+07
   2.1047066E-10               1.428271                7.5813883E+07         -7.5813882E+07
   1.5106780E-10               1.439269                1.0562541E+08         -1.0562541E+08
   1.1549930E-10               1.439610                1.3815320E+08         -1.3815320E+08
   7.5364973E-11               1.422702                2.1172433E+08         -2.1172433E+08
   1.3886561E-35               1.286904                1.1490677E+33         -1.1490677E+33
   2.8780002E-66              0.9807121                1.0000000E+35         -1.0000000E+35
