FL38              6.467091e+04
FLR14            -8.006078e-01
FLR9             -1.829198e+00
FLR23            -6.780863e-01
FL50             -5.517108e+02
FL32             -5.173347e+02
FL20             -6.715508e+03
FLR12            -3.073627e+00
FL19             -9.825899e+03
FL21             -2.534878e+04
FLR20            -2.092884e-01
FL52             -1.278421e+04
FLR27            -2.465034e+00
FLR11            -3.488966e+00
FLR28            -1.635258e+00
FLR22            -1.571390e+00
FLR32            -1.117888e+00
FL49             -2.575823e+02
FL48             -2.578608e+02
FLR13            -9.459307e-01
FL63             -2.224532e+04
FL62             -1.317527e+04
FL29             -2.399604e+03
FL24             -3.658158e+04
FL31             -5.712729e+03
FL64             -1.237425e+04
FL30             -9.008195e+03
FL61             -2.239815e+03
FLR25            -1.038873e+00
FL23             -5.741109e+03
FLR10            -1.062137e+00
FLR26            -8.502324e-01
FLR7             -6.999227e-01
FL34              3.795586e+04
FL33              3.768091e+05
FL6              -7.254329e+03
FLR8             -7.635404e-01
FL5              -1.153979e+03
FL7              -5.427291e+02
FL47             -2.597368e+04
FL9              -1.490974e+03
FL10             -9.498782e+02
FL25             -4.798382e+03
FL4              -2.706156e+03
FL41             -1.017213e+03
FL3              -2.706982e+03
FL2              -6.780082e+02
FL1              -6.782264e+02
FL8              -2.355934e+03
FL39             -6.787154e+01
FL46             -3.599003e+03
FL11             -5.374607e+02
FLR16            -8.146924e-01
FLR24            -8.754470e-01
FL44             -6.787318e+01
FL40             -6.787821e+01
FLR31             6.576818e-01
FL35              1.316566e+04
FL26             -1.724865e+04
FL14             -1.380595e+03
FL17             -2.160720e+02
FLR6             -5.591674e-01
FL22             -1.552134e+04
FLR4             -4.539639e-01
FL54             -1.159184e+03
FL15             -5.516334e+03
FL59              1.033936e+04
FL58             -6.160760e+03
FL16             -5.856607e+03
FL37              6.748109e+04
FL36              7.120502e+03
FLR2             -1.089224e+00
FLR21            -2.330930e-01
FL28             -3.766827e+02
FL13             -1.275703e+03
FL12             -3.746919e+02
FL27             -7.375499e+01
FLR5              2.392072e-02
FLR3             -6.603823e-01
FL53              4.320072e+02
FLR19            -7.999522e-01
FLR1             -4.505687e-01
FLR29            -1.850876e+00
FLR15            -2.788154e-01
