FL_IR               -31177.279
FL_KA_GA            -12115.880
FL_KA_LO              6022.248
FL_KARA             -85995.696
FL_MA               -16113.360
FL_NG_LO             49587.440
FL_NG_MJ_LO         355039.600
FL_RA               -48141.481
FL_TU_WA           -195854.858
